 __      __  _ _                   _       
 \ \    / / | | |                 (_)      
  \ \  / /__| | | _____  _ __ ___  _ _ __  
   \ \/ / _ \ | |/ / _ \| '_ ` _ \| | '_ \ 
    \  /  __/ |   < (_) | | | | | | | | | |
     \/ \___|_|_|\_\___/|_| |_| |_|_|_| |_|

___________________________________________
